20:14:06 **** Incremental Build of configuration Debug for project timer0-comp-interrupt-using-2 ****
make -r all 
Building target: timer0-comp-interrupt-using-2.axf
Invoking: MCU Linker
arm-none-eabi-gcc -nostdlib -L"C:\apes\docs\lcpxpresso-projects\ARM\LPC1769\examples\CMSISv2p00_LPC17xx\Debug" -Xlinker -Map="timer0-comp-interrupt-using-2.map" -Xlinker --gc-sections -mcpu=cortex-m3 -mthumb -T "timer0-comp-interrupt-using-2_Debug.ld" -o "timer0-comp-interrupt-using-2.axf"  ./src/cr_startup_lpc175x_6x.o ./src/crp.o ./src/timer0-comp-interrupt-using-2.o   -lCMSISv2p00_LPC17xx
Finished building target: timer0-comp-interrupt-using-2.axf
 
make --no-print-directory post-build
Performing post-build steps
arm-none-eabi-size "timer0-comp-interrupt-using-2.axf"; # arm-none-eabi-objcopy -v -O binary "timer0-comp-interrupt-using-2.axf" "timer0-comp-interrupt-using-2.bin" ; # checksum -p LPC1769 -d "timer0-comp-interrupt-using-2.bin";
   text	   data	    bss	    dec	    hex	filename
   1352	      0	      0	   1352	    548	timer0-comp-interrupt-using-2.axf
 

20:14:07 Build Finished (took 906ms)

